module codeberg.org/hrueschwein/kotogif

go 1.19

require (
	github.com/PuerkitoBio/goquery v1.8.0
	github.com/u2takey/ffmpeg-go v0.4.1
)

require (
	github.com/andybalholm/cascadia v1.3.1 // indirect
	github.com/aws/aws-sdk-go v1.38.20 // indirect
	github.com/jmespath/go-jmespath v0.4.0 // indirect
	github.com/u2takey/go-utils v0.3.1 // indirect
	golang.org/x/net v0.0.0-20210916014120-12bc252f5db8 // indirect
)
